{
    "name": "entry_point",
    "desc": {
        "en": "Defines an entry point into a javascript application."
    },
    "display": {
        "en": "Entry Point"
    },
    "fields": [
        {
            "name": "name",
            "display": {
                "en": "Name"
            },
            "desc": {
                "en": "The name of the package described by this configuration."
            },
            "required": true,
            "is_a": {
                "type": "string"
            }
        },
        {
            "name": "env",
            "display": {
                "en": "Environment"
            },
            "desc": {
                "en": "The environment this entry point should be built for."
            },
            "assumed": "universal",
            "is_a": {
                "type": "choice",
                "choice_attrs": {
                    "enum_name": "Environments",
                    "choices": [
                        {
                            "display": {
                                "en": "Web Browser"
                            },
                            "name": "browser"
                        },
                        {
                            "display": {
                                "en": "Node JS"
                            },
                            "name": "node"
                        },
                        {
                            "display": {
                                "en": "Isomorphic"
                            },
                            "name": "universal"
                        }
                    ]
                }
            }
        }
    ]
}
