{
    "$schema": "../../../../../model/schema/struct.schema.json",
    "name": "person",
    "display": {
        "en": "Person"
    },
    "desc": {
        "en": "Contact information for a person."
    },
    "fields": [
        {
            "name": "name",
            "display": {
                "en": "Name"
            },
            "desc": {
                "en": "The name of the person."
            },
            "required": true,
            "is_a": {
                "type": "string"
            }
        },
        {
            "name": "email",
            "display": {
                "en": "Email Address"
            },
            "desc": {
                "en": "An email address that can be used to contact this person."
            },
            "is_a": {
                "type": "email"
            }
        },
        {
            "name": "url",
            "display": {
                "en": "Website"
            },
            "desc": {
                "en": "A url associated with this person"
            },
            "is_a": {
                "type": "url"
            }
        }
    ]
}
